certifi==2022.6.15
charset-normalizer==2.1.1
click==8.1.3
Flask==2.2.2
idna==3.3
itsdangerous==2.1.2
Jinja2==3.1.2
lxml==4.9.1
MarkupSafe==2.1.1
pyparsing==3.0.9
PyYAML==6.0
requests==2.28.1
rfeed==1.1.1
twill==3.0.2
urllib3==1.26.11
Werkzeug==2.2.2
